…
``` r
## Borrar Datos Char

primer_tiempo2020
```

    ## # A tibble: 130 x 49
    ##    torneo equipo id_partido partido fasepartido local tiempo accuratePass
    ##    <chr>  <chr>  <chr>      <chr>   <chr>       <lgl> <chr>         <dbl>
    ##  1 Prime~ Uni<f~ 6xszsf73j~ Univer~ Regular Se~ FALSE fh              235
    ##  2 Prime~ Unive~ 6xszsf73j~ Univer~ Regular Se~ TRUE  fh              199
    ##  3 Prime~ Evert~ e88gat05j~ Univer~ Regular Se~ FALSE fh              157
    ##  4 Prime~ Unive~ e88gat05j~ Univer~ Regular Se~ TRUE  fh              192
    ##  5 Prime~ Curic~ 35ijq76er~ Univer~ Regular Se~ FALSE fh              142
    ##  6 Prime~ Unive~ 35ijq76er~ Univer~ Regular Se~ TRUE  fh              168
    ##  7 Prime~ Coqui~ 9o9ji2f68~ Univer~ Regular Se~ FALSE fh              190
    ##  8 Prime~ Unive~ 9o9ji2f68~ Univer~ Regular Se~ TRUE  fh              200
    ##  9 Prime~ Santi~ 357wqv370~ Univer~ Regular Se~ FALSE fh              156
    ## 10 Prime~ Unive~ 357wqv370~ Univer~ Regular Se~ TRUE  fh               92
    ## # ... with 120 more rows, and 41 more variables: wonTackle <dbl>,
    ## #   lostCorners <dbl>, goalsConceded <dbl>, saves <dbl>,
    ## #   ontargetScoringAtt <dbl>, totalScoringAtt <dbl>, subsMade <dbl>,
    ## #   totalThrows <dbl>, totalYellowCard <dbl>, goalKicks <dbl>, totalPass <dbl>,
    ## #   fkFoulWon <dbl>, totalTackle <dbl>, fkFoulLost <dbl>,
    ## #   possessionPercentage <dbl>, totalClearance <dbl>, formationUsed <dbl>,
    ## #   blockedScoringAtt <dbl>, goalAssist <dbl>, goals <dbl>, totalOffside <dbl>,
    ## #   shotOffTarget <dbl>, wonCorners <dbl>, cornerTaken <dbl>,
    ## #   penaltyConceded <dbl>, penaltyFaced <dbl>, penGoalsConceded <dbl>,
    ## #   penaltyWon <dbl>, ownGoals <dbl>, penaltySave <dbl>, secondYellow <dbl>,
    ## #   totalRedCard <dbl>, posesion_Rival <dbl>, precision_pases <dbl>,
    ## #   precision_tiros <dbl>, minutos_juego <dbl>, minutos_juegorival <dbl>,
    ## #   golesSalvados <dbl>, foulsInofensivos <dbl>, cortarJuegoContrario <dbl>,
    ## #   juegoCortado <dbl>

``` r
primer_tiempo2020 <- primer_tiempo2020[,!(colnames(primer_tiempo2020) %in% c("id_partido", "fasepartido", "local", "tiempo","formationUsed", "torneo"))]
primer_tiempo2020
```

    ## # A tibble: 130 x 43
    ##    equipo partido accuratePass wonTackle lostCorners goalsConceded saves
    ##    <chr>  <chr>          <dbl>     <dbl>       <dbl>         <dbl> <dbl>
    ##  1 Uni<f~ Univer~          235         2           3             1     4
    ##  2 Unive~ Univer~          199         2           0             0     1
    ##  3 Evert~ Univer~          157         7           6             0     3
    ##  4 Unive~ Univer~          192         4           1             0     2
    ##  5 Curic~ Univer~          142         6           3             2     2
    ##  6 Unive~ Univer~          168         8           1             1     2
    ##  7 Coqui~ Univer~          190         3           0             0     2
    ##  8 Unive~ Univer~          200         5           0             0     0
    ##  9 Santi~ Univer~          156         4           3             0     0
    ## 10 Unive~ Univer~           92         4           1             1     1
    ## # ... with 120 more rows, and 36 more variables: ontargetScoringAtt <dbl>,
    ## #   totalScoringAtt <dbl>, subsMade <dbl>, totalThrows <dbl>,
    ## #   totalYellowCard <dbl>, goalKicks <dbl>, totalPass <dbl>, fkFoulWon <dbl>,
    ## #   totalTackle <dbl>, fkFoulLost <dbl>, possessionPercentage <dbl>,
    ## #   totalClearance <dbl>, blockedScoringAtt <dbl>, goalAssist <dbl>,
    ## #   goals <dbl>, totalOffside <dbl>, shotOffTarget <dbl>, wonCorners <dbl>,
    ## #   cornerTaken <dbl>, penaltyConceded <dbl>, penaltyFaced <dbl>,
    ## #   penGoalsConceded <dbl>, penaltyWon <dbl>, ownGoals <dbl>,
    ## #   penaltySave <dbl>, secondYellow <dbl>, totalRedCard <dbl>,
    ## #   posesion_Rival <dbl>, precision_pases <dbl>, precision_tiros <dbl>,
    ## #   minutos_juego <dbl>, minutos_juegorival <dbl>, golesSalvados <dbl>,
    ## #   foulsInofensivos <dbl>, cortarJuegoContrario <dbl>, juegoCortado <dbl>

``` r
## Analisis descriptivo


fh2020 <- primer_tiempo2020[order(primer_tiempo2020$saves, decreasing = TRUE),]
fh2020
```

    ## # A tibble: 130 x 43
    ##    equipo partido accuratePass wonTackle lostCorners goalsConceded saves
    ##    <chr>  <chr>          <dbl>     <dbl>       <dbl>         <dbl> <dbl>
    ##  1 Unive~ Uni<f3~          182         5           1             1     5
    ##  2 Depor~ Uni<f3~           74         3           2             0     5
    ##  3 Depor~ Deport~          154         4           2             0     5
    ##  4 Uni<f~ Univer~          235         2           3             1     4
    ##  5 Coqui~ Uni<f3~           82         7           6             1     4
    ##  6 Santi~ O'Higg~          123         5           1             1     4
    ##  7 Evert~ Univer~          157         7           6             0     3
    ##  8 Uni<f~ Uni<f3~          252         6           3             1     3
    ##  9 Unive~ Santia~           95         5           1             0     3
    ## 10 Santi~ Santia~           84         8           2             0     3
    ## # ... with 120 more rows, and 36 more variables: ontargetScoringAtt <dbl>,
    ## #   totalScoringAtt <dbl>, subsMade <dbl>, totalThrows <dbl>,
    ## #   totalYellowCard <dbl>, goalKicks <dbl>, totalPass <dbl>, fkFoulWon <dbl>,
    ## #   totalTackle <dbl>, fkFoulLost <dbl>, possessionPercentage <dbl>,
    ## #   totalClearance <dbl>, blockedScoringAtt <dbl>, goalAssist <dbl>,
    ## #   goals <dbl>, totalOffside <dbl>, shotOffTarget <dbl>, wonCorners <dbl>,
    ## #   cornerTaken <dbl>, penaltyConceded <dbl>, penaltyFaced <dbl>,
    ## #   penGoalsConceded <dbl>, penaltyWon <dbl>, ownGoals <dbl>,
    ## #   penaltySave <dbl>, secondYellow <dbl>, totalRedCard <dbl>,
    ## #   posesion_Rival <dbl>, precision_pases <dbl>, precision_tiros <dbl>,
    ## #   minutos_juego <dbl>, minutos_juegorival <dbl>, golesSalvados <dbl>,
    ## #   foulsInofensivos <dbl>, cortarJuegoContrario <dbl>, juegoCortado <dbl>

``` r
## Sub DataFrames


fh2020_rendimiento = fh2020[,colnames(primer_tiempo2020) %in% c("equipo", "partido", "saves", "possessionPercentage", "precision_rendimiento")]
fh2020_rendimiento = fh2020_rendimiento[order(fh2020_rendimiento$possessionPercentage, decreasing = TRUE),]
fh2020_rendimiento
```

    ## # A tibble: 130 x 4
    ##    equipo            partido                            saves possessionPercent~
    ##    <chr>             <chr>                              <dbl>              <dbl>
    ##  1 Universidad Cat<~ Universidad Cat<f3>lica vs Deport~     2               76.4
    ##  2 Deportivo Antofa~ Deportivo Antofagasta vs Universi~     1               69.4
    ##  3 Uni<f3>n La Cale~ Uni<f3>n La Calera vs Coquimbo Un~     0               68.8
    ##  4 Colo Colo         Colo Colo vs Universidad Concepci~     0               68.2
    ##  5 Uni<f3>n Espa<f1~ Uni<f3>n Espa<f1>ola vs Huachipato     0               67.8
    ##  6 Curic<f3> Unido   Universidad Concepci<f3>n vs Curi~     2               67.7
    ##  7 Palestino         Palestino vs Deportivo Antofagasta     1               65.7
    ##  8 Audax Italiano    Audax Italiano vs Colo Colo            0               65.5
    ##  9 Uni<f3>n Espa<f1~ Uni<f3>n Espa<f1>ola vs Palestino      0               65  
    ## 10 Uni<f3>n La Cale~ Uni<f3>n La Calera vs La Serena        3               64.8
    ## # ... with 120 more rows

``` r
fh2020_fauls <- NULL
fh2020_fauls = fh2020[,colnames(primer_tiempo2020) %in% c("equipo", "partido", "totalTackle", "totalYellowCard", "fkFoulWon", "fkFoulLost", "totalOffside", "totalRedCard")]
fh2020_fauls = fh2020_fauls[order(fh2020_fauls$totalYellowCard, decreasing = TRUE),]
fh2020_fauls
```

    ## # A tibble: 130 x 8
    ##    equipo partido totalYellowCard fkFoulWon totalTackle fkFoulLost totalOffside
    ##    <chr>  <chr>             <dbl>     <dbl>       <dbl>      <dbl>        <dbl>
    ##  1 Audax~ Santia~               3         9           3          6            0
    ##  2 Unive~ Uni<f3~               2        10           7         11            0
    ##  3 Depor~ Uni<f3~               2         5           6         12            1
    ##  4 Evert~ Univer~               2         6          12          9            3
    ##  5 Unive~ Santia~               2         6           9          6            2
    ##  6 Cobre~ La Ser~               2         6           8         10            1
    ##  7 Depor~ Deport~               2         7           4          4            1
    ##  8 Cobre~ Cobres~               2         7           8         10            0
    ##  9 Uni<f~ Uni<f3~               2         5           5          6            2
    ## 10 Huach~ Uni<f3~               2         5           6         10            1
    ## # ... with 120 more rows, and 1 more variable: totalRedCard <dbl>
…
